Module 4 Data Manipulation with dplyr | R Programming for Business
…
Since the results have been arranged, you can see that the South has the greatest number of counties.

4.2.3 Counting citizens by state

You can weigh your count by particular variables rather than finding the number of counties. In this case, you’ll find the number of citizens in each state.

counties_selected <- counties %>%
  select(region, state, population, citizens)

4.2.3.1 Find number of counties per state, weighted by citizens

counties_selected %>%
count(state, wt=citizens, sort=TRUE)

## # A tibble: 50 x 2
##    state                 n
##    <fct>             <int>
##  1 California     24280349
##  2 Texas          16864962
##  3 Florida        13933052
##  4 New York       13531404
##  5 Pennsylvania    9710416
##  6 Illinois        8979999
##  7 Ohio            8709050
##  8 Michigan        7380136
##  9 North Carolina  7107998
## 10 Georgia         6978660
## # ... with 40 more rows
…
You can combine multiple verbs together to answer increasingly complicated questions of your data. For example: “What are the US states where the most people walk to work?”

You’ll use the walk column, which offers a percentage of people in each county that walk to work, to add a new column and count based on it.

counties_selected <- counties %>%
  select(state, population, walk)

counties_selected %>%
  # Add population_walk containing the total number of people who walk to work 
  mutate(population_walk = population * walk / 100) %>%
  # Count weighted by the new column
  count(state, wt = population_walk, sort=TRUE)

## # A tibble: 50 x 2
##    state                n
##    <fct>            <dbl>
##  1 New York      1237938.
##  2 California    1017964.
##  3 Pennsylvania   505397.
##  4 Texas          430793.
##  5 Illinois       400346.
##  6 Massachusetts  316765.
##  7 Florida        284723.
##  8 New Jersey     273047.
##  9 Ohio           266911.
## 10 Washington     239764.
## # ... with 40 more rows
…
Another interesting column is land_area, which shows the land area in square miles. Here, you’ll summarize both population and land area by state, with the purpose of finding the density (in people per square miles).

counties_selected <- counties %>%
  select(state, county, population, land_area)

4.2.6.1 Add a density column, then sort in descending order

counties_selected %>%
  group_by(state) %>%
  summarize(total_area = sum(land_area),
            total_population = sum(population)) %>%
  mutate(density = total_population / total_area) %>%
  arrange(desc(density))

## # A tibble: 50 x 4
##    state         total_area total_population density
##    <fct>              <dbl>            <int>   <dbl>
##  1 New Jersey         7354.          8904413   1211.
##  2 Rhode Island       1034.          1053661   1019.
##  3 Massachusetts      7800.          6705586    860.
##  4 Connecticut        4842.          3593222    742.
##  5 Maryland           9707.          5930538    611.
##  6 Delaware           1949.           926454    475.
##  7 New York          47126.         19673174    417.
##  8 Florida           53625.         19645772    366.
##  9 Pennsylvania      44743.         12779559    286.
## 10 Ohio              40861.         11575977    283.
## # ... with 40 more rows
…
It looks like only a few counties have more than half the population working for the government.

4.3.4 Video: The rename verb

4.3.5 Renaming a column after count

The rename() verb is often useful for changing the name of a column that comes out of another verb, such ascount(). In this exercise, you’ll rename the n column from count() (which you learned about in Chapter 2) to something more descriptive.

# Rename the n column to num_counties
counties %>%
  count(state) %>%
  rename(num_counties = n)

## # A tibble: 50 x 2
##    state       num_counties
##    <fct>              <int>
##  1 Alabama               67
##  2 Alaska                29
##  3 Arizona               15
##  4 Arkansas              75
##  5 California            58
##  6 Colorado              64
##  7 Connecticut            8
##  8 Delaware               3
##  9 Florida               67
## 10 Georgia              159
## # ... with 40 more rows
…
4.4.1 Video: The babynames data

library(babynames) 
library(dplyr) 
library(tidyr)

babynames <- babynames %>% 
  select(year, name, number) %>% 
  group_by(year, name) %>% 
  summarise(number = sum(number)) %>% 
  # ungroup() %>% 
  arrange(year, name)
babynames

## # A tibble: 1,756,284 x 3
## # Groups:   year [138]
##     year name    number
##    <dbl> <chr>    <int>
##  1  1880 Aaron      102
##  2  1880 Ab           5
##  3  1880 Abbie       71
##  4  1880 Abbott       5
##  5  1880 Abby         6
##  6  1880 Abe         50
##  7  1880 Abel         9
##  8  1880 Abigail     12
##  9  1880 Abner       27
## 10  1880 Abraham     81
## # ... with 1,756,274 more rows

4.4.2 Filtering and arranging for one year

The dplyr verbs you’ve learned are useful for exploring data. For instance, you could find out the most common names in a particular year.

babynames %>%
  # Filter for the year 1990
  filter(year == 1990) %>%
  # Sort the number column in descending order 
  arrange(desc(number))

## # A tibble: 22,678 x 3
## # Groups:   year [1]
##     year name        number
##    <dbl> <chr>        <int>
##  1  1990 Michael      65560
##  2  1990 Christopher  52520
##  3  1990 Jessica      46615
##  4  1990 Ashley       45797
##  5  1990 Matthew      44925
##  6  1990 Joshua       43382
##  7  1990 Brittany     36650
##  8  1990 Amanda       34504
##  9  1990 Daniel       33963
## 10  1990 David        33862
## # ... with 22,668 more rows

It looks like the most common names for babies born in the US in 1990 were Michael, Christopher, and Jessica.

4.4.3 Using top_n with babynames

You saw that you could use filter() and arrange() to find the most common names in one year. However, you could also use group_by and top_n to find the most common name in every year.

# Find the most common name in each year
babynames %>%
  group_by(year) %>%
  top_n(1, number)

## # A tibble: 138 x 3
## # Groups:   year [138]
##     year name  number
##    <dbl> <chr>  <int>
##  1  1880 John    9701
##  2  1881 John    8795
##  3  1882 John    9597
##  4  1883 John    8934
##  5  1884 John    9428
##  6  1885 Mary    9166
##  7  1886 Mary    9921
##  8  1887 Mary    9935
##  9  1888 Mary   11804
## 10  1889 Mary   11689
## # ... with 128 more rows
…
In an earlier video, you learned how to filter for a particular name to determine the frequency of that name over time. Now, you’re going to explore which year each name was the most common.

To do this, you’ll be combining the grouped mutate approach with a top_n.

# Calculate the fraction of people born each year with the same name
babynames %>%
  group_by(year) %>%
  mutate(year_total = sum(number)) %>%
  ungroup() %>%
  mutate(fraction = number / year_total) %>%
# Find the year each name is most common
  group_by(name) %>%
  top_n(1, fraction)

## # A tibble: 97,310 x 5
## # Groups:   name [97,310]
##     year name     number year_total  fraction
##    <dbl> <chr>     <int>      <int>     <dbl>
##  1  1880 Abbott        5     201484 0.0000248
##  2  1880 Abe          50     201484 0.000248 
##  3  1880 Adelbert     28     201484 0.000139 
##  4  1880 Adella       26     201484 0.000129 
##  5  1880 Agustus       5     201484 0.0000248
##  6  1880 Albert     1493     201484 0.00741  
##  7  1880 Albertus      5     201484 0.0000248
##  8  1880 Alcide        7     201484 0.0000347
##  9  1880 Alonzo      122     201484 0.000606 
## 10  1880 Amos        128     201484 0.000635 
## # ... with 97,300 more rows
…
In these exercises, you’ll learn to normalize by a different, but also interesting metric: you’ll divide each name by the maximum for that name. This means that every name will peak at 1.

Once you add new columns, the result will still be grouped by name. This splits it into 48,000 groups, which actually makes later steps like mutate slower.

babynames %>%
  group_by(name) %>%
  mutate(name_total = sum(number),
         name_max = max(number)) %>%
  # Ungroup the table 
  ungroup() %>%
  # Add the fraction_max column containing the number by the name maximum 
  mutate(fraction_max = number / name_max)

## # A tibble: 1,756,284 x 6
##     year name    number name_total name_max fraction_max
##    <dbl> <chr>    <int>      <int>    <int>        <dbl>
##  1  1880 Aaron      102     579589    15411     0.00662 
##  2  1880 Ab           5        362       41     0.122   
##  3  1880 Abbie       71      21716      536     0.132   
##  4  1880 Abbott       5       1020       59     0.0847  
##  5  1880 Abby         6      57756     2048     0.00293 
##  6  1880 Abe         50       9158      280     0.179   
##  7  1880 Abel         9      50236     3245     0.00277 
##  8  1880 Abigail     12     357031    15948     0.000752
##  9  1880 Abner       27       7641      202     0.134   
## 10  1880 Abraham     81      88852     2575     0.0315  
## # ... with 1,756,274 more rows
…
babynames_fraction <- babynames %>%
  group_by(year) %>% 
  mutate(year_total = sum(number)) %>% 
  ungroup() %>% 
  mutate(fraction = number / year_total)
# Just for Matthew
babynames_fraction %>% 
  filter(name == "Matthew") %>% 
  arrange(year) %>% 
# Display change in prevalence from year to year
  mutate(difference = fraction - lag(fraction)) %>% 
# Arange in descending order
  arrange(desc(difference))

## # A tibble: 138 x 6
##     year name    number year_total fraction difference
##    <dbl> <chr>    <int>      <int>    <dbl>      <dbl>
##  1  1981 Matthew  43531    3459182  0.0126    0.00154 
##  2  1983 Matthew  50531    3462826  0.0146    0.00138 
##  3  1971 Matthew  22653    3432585  0.00660   0.000982
##  4  1967 Matthew  13629    3395130  0.00401   0.000894
##  5  1973 Matthew  24658    3017412  0.00817   0.000835
##  6  1974 Matthew  27332    3040409  0.00899   0.000818
##  7  1978 Matthew  34468    3174268  0.0109    0.000741
##  8  1972 Matthew  23066    3143627  0.00734   0.000738
##  9  1968 Matthew  15915    3378876  0.00471   0.000696
## 10  1982 Matthew  46333    3507664  0.0132    0.000625
## # ... with 128 more rows

# For all names
babynames_fraction %>% 
  group_by(name) %>% 
# Display change in prevalence from year to year
  mutate(difference = fraction - lag(fraction)) %>% 
# Arange in descending order
  arrange(name, year)

## # A tibble: 1,756,284 x 6
## # Groups:   name [97,310]
##     year name  number year_total   fraction difference
##    <dbl> <chr>  <int>      <int>      <dbl>      <dbl>
##  1  2007 Aaban      5    3994007 0.00000125   NA      
##  2  2009 Aaban      6    3815638 0.00000157    3.21e-7
##  3  2010 Aaban      9    3690700 0.00000244    8.66e-7
##  4  2011 Aaban     11    3651914 0.00000301    5.74e-7
##  5  2012 Aaban     11    3650462 0.00000301    1.20e-9
##  6  2013 Aaban     14    3637310 0.00000385    8.36e-7
##  7  2014 Aaban     16    3696311 0.00000433    4.80e-7
##  8  2015 Aaban     15    3688687 0.00000407   -2.62e-7
##  9  2016 Aaban      9    3652968 0.00000246   -1.60e-6
## 10  2017 Aaban     11    3546301 0.00000310    6.38e-7
## # ... with 1,756,274 more rows
…
Previously, you added a ratio column to describe the ratio of the frequency of a baby name between consecutive years to describe the changes in the popularity of a name. Now, you’ll look at a subset of that data, called babynames_ratios_filtered, to look further into the names that experienced the biggest jumps in popularity in consecutive years.

babynames_ratios_filtered <- babynames_ratio %>%
                     filter(fraction >= 0.00001)

babynames_ratios_filtered %>%
  # Extract the largest ratio from each name 
  top_n(1, ratio) %>%
  # Sort the ratio column in descending order 
  arrange(desc(ratio)) %>%
  # Filter for fractions greater than or equal to 0.001
  filter(fraction >= 0.001)

## # A tibble: 155 x 6
## # Groups:   name [155]
##     year name    number year_total fraction ratio
##    <dbl> <chr>    <int>      <int>    <dbl> <dbl>
##  1  1957 Tammy     4398    4200007  0.00105 16.3 
##  2  1912 Woodrow   1854     988064  0.00188  9.99
##  3  1931 Marlene   2599    2104071  0.00124  8.97
##  4  1898 Dewey     1219     381458  0.00320  6.48
##  5  2010 Bentley   4001    3690700  0.00108  6.21
##  6  1884 Grover     809     243462  0.00332  5.68
##  7  1984 Jenna     5898    3487820  0.00169  5.01
##  8  1991 Mariah    5200    3894329  0.00134  4.78
##  9  1943 Cheryl    2894    2822127  0.00103  4.75
## 10  1989 Ethan     4067    3843559  0.00106  4.37
## # ... with 145 more rows
…
4.6.6 Question 6

sw %>% # 6.a.
  group_by(homeworld) %>% 
  count() %>% 
  arrange(desc(n))

## # A tibble: 49 x 2
## # Groups:   homeworld [49]
##    homeworld     n
##    <chr>     <int>
##  1 Naboo        11
##  2 Tatooine     10
##  3 <NA>         10
##  4 Alderaan      3
##  5 Coruscant     3
##  6 Kamino        3
##  7 Corellia      2
##  8 Kashyyyk      2
##  9 Mirial        2
## 10 Ryloth        2
## # ... with 39 more rows
…
