Module 7 Exploratory Data Analysis in R | R Programming for Business
…
## # A tibble: 6 x 3
##   country           total percent_yes
##   <chr>             <int>       <dbl>
## 1 Afghanistan        4899       0.840
## 2 Albania            3439       0.719
## 3 Algeria            4450       0.898
## 4 Andorra            1487       0.649
## 5 Angola             3025       0.923
## 6 Antigua & Barbuda  2595       0.918

# Sort in ascending order of percent_yes
by_country %>%
arrange(percent_yes)

## # A tibble: 200 x 3
##    country                          total percent_yes
##    <chr>                            <int>       <dbl>
##  1 Zanzibar                             2       0    
##  2 United States                     5312       0.285
##  3 Palau                              841       0.313
##  4 Israel                            4866       0.349
##  5 German Federal Republic           2151       0.398
##  6 Micronesia (Federated States of)  1405       0.414
##  7 United Kingdom                    5294       0.428
##  8 France                            5247       0.433
##  9 Marshall Islands                  1534       0.485
## 10 Belgium                           5313       0.495
## # ... with 190 more rows

# Now sort in descending order
by_country %>%
arrange(desc(percent_yes))

## # A tibble: 200 x 3
##    country              total percent_yes
##    <chr>                <int>       <dbl>
##  1 Seychelles            1771       0.978
##  2 Timor-Leste            769       0.969
##  3 São Tomé & Príncipe   2388       0.967
##  4 Djibouti              3269       0.956
##  5 Guinea-Bissau         3001       0.955
##  6 Cape Verde            3223       0.946
##  7 Comoros               2468       0.945
##  8 Mozambique            3382       0.943
##  9 United Arab Emirates  3954       0.942
## 10 Suriname              3354       0.941
## # ... with 190 more rows

7.6.11 Filtering summarized output

In the last exercise, you may have noticed that the country that voted least frequently, Zanzibar, had only 2 votes in the entire dataset. You certainly can’t make any substantial conclusions based on that data!

Typically in a progressive analysis, when you find that a few of your observations have very little data while others have plenty, you set some threshold to filter them out.

# Filter out countries with fewer than 100 votes
by_country %>%
filter(total >= 100) %>%
  arrange(percent_yes)

## # A tibble: 199 x 3
##    country                          total percent_yes
##    <chr>                            <int>       <dbl>
##  1 United States                     5312       0.285
##  2 Palau                              841       0.313
##  3 Israel                            4866       0.349
##  4 German Federal Republic           2151       0.398
##  5 Micronesia (Federated States of)  1405       0.414
##  6 United Kingdom                    5294       0.428
##  7 France                            5247       0.433
##  8 Marshall Islands                  1534       0.485
##  9 Belgium                           5313       0.495
## 10 Luxembourg                        5245       0.513
## # ... with 189 more rows
…
7.7.4 Video: Visualizing by country

View slides.

by_year_country <- votes_processed %>%
  group_by(year, country) %>% 
  summarize(total = n(),
            percent_yes = mean(vote == 1))

us_france <- by_year_country %>% 
  filter(country %in% c("United States", "France"))
us_france

## # A tibble: 136 x 4
## # Groups:   year [68]
##     year country       total percent_yes
##    <dbl> <chr>         <int>       <dbl>
##  1  1946 France           43       0.558
##  2  1946 United States    43       0.605
##  3  1947 France           38       0.737
##  4  1947 United States    38       0.711
##  5  1948 France          104       0.452
##  6  1948 United States   104       0.452
##  7  1949 France           64       0.312
##  8  1949 United States    64       0.281
##  9  1950 France           53       0.321
## 10  1950 United States    53       0.491
## # ... with 126 more rows
…
