Module 4 Fourth Topic | Alice in Wonderland
…
4.1.6 Question 6

sw %>% # 6.a.
  group_by(homeworld) %>% 
  count() %>% 
  arrange(desc(n))

## # A tibble: 49 x 2
## # Groups:   homeworld [49]
##    homeworld     n
##    <chr>     <int>
##  1 Naboo        11
##  2 Tatooine     10
##  3 <NA>         10
##  4 Alderaan      3
##  5 Coruscant     3
##  6 Kamino        3
##  7 Corellia      2
##  8 Kashyyyk      2
##  9 Mirial        2
## 10 Ryloth        2
## # ... with 39 more rows
…
